rvx10p_230102126/pipeline_tb.vcd
$date
	Sun Oct 26 16:51:26 2025
$end
$version
	Icarus Verilog
$end
$timescale
	1ps
$end
$scope module tb_pipeline $end
$var wire 32 ! WriteData [31:0] $end
$var wire 1 " MemWrite $end
$var wire 32 # DataAdr [31:0] $end
$var reg 1 $ clk $end
$var reg 1 % reset $end
$scope module dut $end
$var wire 1 $ clk $end
$var wire 1 % reset $end
$var wire 32 & WriteData [31:0] $end
$var wire 32 ' ReadData [31:0] $end
$var wire 32 ( PC [31:0] $end
$var wire 1 " MemWrite $end
$var wire 32 ) InstrIF [31:0] $end
$var wire 32 * DataAdr [31:0] $end
$scope module cpu $end
$var wire 1 $ clk $end
$var wire 1 % reset $end
$var wire 32 + WriteData_out [31:0] $end
$var wire 32 , ReadData [31:0] $end
$var wire 32 - PC [31:0] $end
$var wire 1 " MemWrite_out $end
$var wire 32 . InstrIF [31:0] $end
$var wire 32 / DataAdr_out [31:0] $end
$scope module dp $end
$var wire 32 0 ALU_srcA [31:0] $end
$var wire 32 1 DataAdr_out [31:0] $end
$var wire 32 2 EXMEM_ALUOut [31:0] $end
$var wire 5 3 EXMEM_Rd [4:0] $end
$var wire 1 4 EXMEM_RegWrite $end
$var wire 5 5 EX_Rs1 [4:0] $end
$var wire 5 6 EX_Rs2 [4:0] $end
$var wire 32 7 InstrD [31:0] $end
$var wire 5 8 MEMWB_Rd [4:0] $end
$var wire 1 9 MEMWB_RegWrite $end
$var wire 32 : MEMWB_Result [31:0] $end
$var wire 1 " MemWrite_out $end
$var wire 32 ; PC [31:0] $end
$var wire 1 < PCSrc $end
$var wire 32 = WriteData_out [31:0] $end
$var wire 1 $ clk $end
$var wire 1 > flushD $end
$var wire 1 % reset $end
$var wire 1 ? stallF $end
$var wire 1 @ stallD $end
$var wire 12 A immS [11:0] $end
$var wire 21 B immJ [20:0] $end
$var wire 12 C immI [11:0] $end
$var wire 13 D immB [12:0] $end
$var wire 1 E flushE $end
$var wire 1 F ZeroE $end
$var wire 32 G WB_value [31:0] $end
$var wire 5 H Rs2D [4:0] $end
$var wire 5 I Rs1D [4:0] $end
$var wire 2 J ResultSrcD [1:0] $end
$var wire 1 K RegWriteD $end
$var wire 32 L ReadData2D [31:0] $end
$var wire 32 M ReadData1D [31:0] $end
$var wire 32 N ReadData [31:0] $end
$var wire 5 O RdD [4:0] $end
$var wire 32 P PC_plus4 [31:0] $end
$var wire 32 Q PC_next [31:0] $end
$var wire 32 R PCTarget [31:0] $end
$var wire 1 S MemWriteD $end
$var wire 1 T MemToRegD $end
$var wire 1 U MemReadE $end
$var wire 1 V JumpD $end
$var wire 32 W InstrIF [31:0] $end
$var wire 2 X ImmSrcD [1:0] $end
$var wire 2 Y ForwardB [1:0] $end
$var wire 2 Z ForwardA [1:0] $end
$var wire 1 [ BranchD $end
$var wire 32 \ ALU_srcB [31:0] $end
$var wire 32 ] ALU_resultE [31:0] $end
$var wire 1 ^ ALUSrcD $end
$var wire 2 _ ALUOpD [1:0] $end
$var parameter 5 ` ALU_ABS $end
$var parameter 5 a ALU_ADD $end
$var parameter 5 b ALU_AND $end
$var parameter 5 c ALU_ANDN $end
$var parameter 5 d ALU_MAX $end
$var parameter 5 e ALU_MAXU $end
$var parameter 5 f ALU_MIN $end
$var parameter 5 g ALU_MINU $end
$var parameter 5 h ALU_OR $end
$var parameter 5 i ALU_ORN $end
$var parameter 5 j ALU_ROL $end
$var parameter 5 k ALU_ROR $end
$var parameter 5 l ALU_SLL $end
$var parameter 5 m ALU_SLT $end
$var parameter 5 n ALU_SRL $end
$var parameter 5 o ALU_SUB $end
$var parameter 5 p ALU_XNOR $end
$var parameter 5 q ALU_XOR $end
$var reg 5 r ALUControlE [4:0] $end
$var reg 32 s ALU_input_A [31:0] $end
$var reg 32 t ALU_input_B [31:0] $end
$var reg 1 u BranchTaken $end
$var reg 1 v EXMEM_MemToReg_local $end
$var reg 1 w EXMEM_MemWrite_local $end
$var reg 1 x EXMEM_RegWrite_local $end
$var reg 32 y EXMEM_aluOut [31:0] $end
$var reg 5 z EXMEM_rd [4:0] $end
$var reg 32 { EXMEM_writeData [31:0] $end
$var reg 32 | ForwardedStoreData [31:0] $end
$var reg 2 } IDEX_ALUOp [1:0] $end
$var reg 1 ~ IDEX_ALUSrc $end
$var reg 1 !" IDEX_Branch $end
$var reg 32 "" IDEX_Imm [31:0] $end
$var reg 1 #" IDEX_Jump $end
$var reg 1 $" IDEX_MemToReg $end
$var reg 1 %" IDEX_MemWrite $end
$var reg 32 &" IDEX_PC [31:0] $end
$var reg 5 '" IDEX_Rd [4:0] $end
$var reg 32 (" IDEX_ReadData1 [31:0] $end
$var reg 32 )" IDEX_ReadData2 [31:0] $end
$var reg 1 *" IDEX_RegWrite $end
$var reg 2 +" IDEX_ResultSrc [1:0] $end
$var reg 5 ," IDEX_Rs1 [4:0] $end
$var reg 5 -" IDEX_Rs2 [4:0] $end
$var reg 3 ." IDEX_funct3 [2:0] $end
$var reg 7 /" IDEX_funct7 [6:0] $end
$var reg 7 0" IDEX_opcode [6:0] $end
$var reg 32 1" IFID_Instr [31:0] $end
$var reg 32 2" IFID_PC [31:0] $end
$var reg 32 3" ImmExtD [31:0] $end
$var reg 1 4" MEMWB_MemToReg_local $end
$var reg 1 5" MEMWB_RegWrite_local $end
$var reg 32 6" MEMWB_aluOut [31:0] $end
$var reg 5 7" MEMWB_rd [4:0] $end
$var reg 32 8" MEMWB_readData [31:0] $end
$var reg 32 9" PC_reg [31:0] $end
$var reg 32 :" branch_count [31:0] $end
$var reg 32 ;" cycle_count [31:0] $end
$var reg 32 <" flush_count [31:0] $end
$var reg 32 =" instr_retired [31:0] $end
$var reg 32 >" stall_count [31:0] $end
$var integer 32 ?" i [31:0] $end
$scope function alu_core $end
$upscope $end
$scope function aluctrl $end
$upscope $end
$scope module ctrl $end
$var wire 7 @" opcode [6:0] $end
$var reg 2 A" ALUOp [1:0] $end
$var reg 1 ^ ALUSrc $end
$var reg 1 [ Branch $end
$var reg 2 B" ImmSrc [1:0] $end
$var reg 1 V Jump $end
$var reg 1 T MemToReg $end
$var reg 1 S MemWrite $end
$var reg 1 K RegWrite $end
$var reg 2 C" ResultSrc [1:0] $end
$upscope $end
$scope module fwd $end
$var wire 5 D" RdM [4:0] $end
$var wire 5 E" RdW [4:0] $end
$var wire 1 4 RegWriteM $end
$var wire 1 9 RegWriteW $end
$var wire 5 F" Rs1E [4:0] $end
$var wire 5 G" Rs2E [4:0] $end
$var reg 2 H" ForwardA [1:0] $end
$var reg 2 I" ForwardB [1:0] $end
$upscope $end
$scope module hunit $end
$var wire 1 U MemReadE $end
$var wire 5 J" RdE [4:0] $end
$var wire 5 K" Rs1D [4:0] $end
$var wire 5 L" Rs2D [4:0] $end
$var reg 1 E flushE $end
$var reg 1 @ stallD $end
$var reg 1 ? stallF $end
$upscope $end
$upscope $end
$upscope $end
$scope module dmem $end
$var wire 32 M" a [31:0] $end
$var wire 1 $ clk $end
$var wire 32 N" rd [31:0] $end
$var wire 1 % reset $end
$var wire 32 O" wd [31:0] $end
$var wire 1 " we $end
$var integer 32 P" i [31:0] $end
$upscope $end
$scope module imem $end
$var wire 32 Q" a [31:0] $end
$var wire 32 R" rd [31:0] $end
$upscope $end
$upscope $end
$upscope $end
$enddefinitions $end
$comment Show the parameter values. $end
$dumpall
b100 q
b1010 p
b1 o
b111 n
b101 m
b110 l
b10000 k
b1111 j
b1001 i
b11 h
b1101 g
b1011 f
b1110 e
b1100 d
b1000 c
b10 b
b0 a
b10001 `
$end
#0
$dumpvars
b110000000000010000000100011 R"
b0 Q"
b1000000 P"
b0 O"
b0 N"
b0 M"
b0 L"
b0 K"
b0 J"
b0 I"
b0 H"
b0 G"
b0 F"
b0 E"
b0 D"
b0 C"
b0 B"
b10 A"
b10011 @"
b100000 ?"
b0 >"
b0 ="
b0 <"
b0 ;"
b0 :"
b0 9"
b0 8"
b0 7"
b0 6"
05"
04"
b0 3"
b0 2"
b10011 1"
b0 0"
b0 /"
b0 ."
b0 -"
b0 ,"
b0 +"
0*"
b0 )"
b0 ("
b0 '"
b0 &"
0%"
0$"
0#"
b0 ""
0!"
0~
b0 }
b0 |
b0 {
b0 z
b0 y
0x
0w
0v
0u
b0 t
b0 s
b0 r
b10 _
1^
b0 ]
b0 \
0[
b0 Z
b0 Y
b0 X
b110000000000010000000100011 W
0V
0U
0T
0S
b0 R
b100 Q
b100 P
b0 O
b0 N
b0 M
b0 L
1K
b0 J
b0 I
b0 H
b0 G
1F
0E
b0 D
b0 C
b0 B
b0 A
0@
0?
0>
b0 =
0<
b0 ;
b0 :
09
b0 8
b10011 7
b0 6
b0 5
04
b0 3
b0 2
b0 1
b0 0
b0 /
b110000000000010000000100011 .
b0 -
b0 ,
b0 +
b0 *
b110000000000010000000100011 )
b0 (
b0 '
b0 &
1%
1$
b0 #
0"
b0 !
$end
#5000
0$
#10000
1$
#15000
0$
#20000
1$
#22000
0%
#25000
0$
#30000
b1 X
b1 B"
1S
b0 _
b0 A"
1^
0K
b1100000 3"
b100011 @"
b1100000 C
b1100000 A
b1100000 D
b10000001100000 B
b1000 Q
b10100000000010100010011 )
b10100000000010100010011 .
b10100000000010100010011 W
b10100000000010100010011 R"
b10011 0"
b10 }
1~
1*"
b110000000000010000000100011 7
b110000000000010000000100011 1"
b1000 P
b100 (
b100 -
b100 ;
b100 Q"
b100 9"
b1 ;"
1$
#35000
0$
#40000
0F
b1100000 ]
b10 _
b10 A"
1K
b0 X
b0 B"
1^
0S
b101 3"
b1100000 t
b1100 Q
b1100000000010110010011 )
b1100000000010110010011 .
b1100000000010110010011 W
b1100000000010110010011 R"
b101 H
b101 L"
b1010 O
b10011 @"
b101 C
b1010 A
b1010 D
b100000000100 B
b1100000 \
b10 ;"
b1100 P
b1000 (
b1000 -
b1000 ;
b1000 Q"
b1000 9"
b10100000000010100010011 7
b10100000000010100010011 1"
b100 2"
b100011 0"
b11 /"
b10 ."
b0 }
1%"
0*"
b1100000 R
b1100000 ""
14
1x
1$
#45000
0$
#50000
b101 ]
b11 3"
b101 t
b101 \
b11 H
b11 L"
b1011 O
b11 C
b1011 A
b100000001010 D
b100000000010 B
b10000 Q
b100000000000011000010011 )
b100000000000011000010011 .
b100000000000011000010011 W
b100000000000011000010011 R"
19
15"
1"
1w
04
0x
b1100000 #
b1100000 *
b1100000 /
b1100000 1
b1100000 M"
b1100000 2
b1100000 y
b10011 0"
b0 /"
b0 ."
b10 }
0%"
1*"
b1010 '"
b1010 J"
b101 6
b101 G"
b101 -"
b100 &"
b1001 R
b101 ""
b1100000000010110010011 7
b1100000000010110010011 1"
b1000 2"
b10000 P
b1100 (
b1100 -
b1100 ;
b1100 Q"
b1100 9"
b11 ;"
1$
#55000
0$
#60000
b11 ]
b1000 3"
b11 t
b10100 Q
b11111111101100000000011010010011 )
b11111111101100000000011010010011 .
b11111111101100000000011010010011 W
b11111111101100000000011010010011 R"
b1000 H
b1000 L"
b1100 O
b1000 C
b1100 A
b1100 D
b1000 B
b11 \
b1100000 :
b1100000 G
b100 ;"
b10100 P
b10000 (
b10000 -
b10000 ;
b10000 Q"
b10000 9"
b100000000000011000010011 7
b100000000000011000010011 1"
b1100 2"
b1011 '"
b1011 J"
b11 6
b11 G"
b11 -"
b1000 &"
b1011 R
b11 ""
0"
0w
14
1x
b1010 3
b1010 D"
b1010 z
b101 #
b101 *
b101 /
b101 1
b101 M"
b101 2
b101 y
09
05"
b1100000 6"
1$
#65000
0$
#70000
b1000 ]
b11111111111111111111111111111011 3"
b101 :
b101 G
b1000 t
b1000 \
b11011 H
b11011 L"
b1101 O
b111111111011 C
b111111101101 A
b1111111101100 D
b100000000111111111010 B
b11000 Q
b111000010011 )
b111000010011 .
b111000010011 W
b111000010011 R"
19
15"
b1010 8
b1010 E"
b1010 7"
b101 6"
b1011 3
b1011 D"
b1011 z
b11 #
b11 *
b11 /
b11 1
b11 M"
b11 2
b11 y
b1100 '"
b1100 J"
b1000 6
b1000 G"
b1000 -"
b1100 &"
b10100 R
b1000 ""
b11111111101100000000011010010011 7
b11111111101100000000011010010011 1"
b10000 2"
b11000 P
b10100 (
b10100 -
b10100 ;
b10100 Q"
b10100 9"
b101 ;"
1$
#75000
0$
#80000
b0 3"
b101 ]
b11111111111111111111111111111011 t
b11100 Q
b101101010000001010001011 )
b101101010000001010001011 .
b101101010000001010001011 W
b101101010000001010001011 R"
b0 H
b0 L"
b11100 O
b0 C
b11100 A
b11100 D
b0 B
b1 r
b11111111111111111111111111111011 \
b11 :
b11 G
b1 ="
b110 ;"
b11100 P
b11000 (
b11000 -
b11000 ;
b11000 Q"
b11000 9"
b111000010011 7
b111000010011 1"
b10100 2"
b1111111 /"
b1101 '"
b1101 J"
b11011 6
b11011 G"
b11011 -"
b10000 &"
b1011 R
b11111111111111111111111111111011 ""
b1100 3
b1100 D"
b1100 z
b1000 #
b1000 *
b1000 /
b1000 1
b1000 M"
b1000 2
b1000 y
b1011 8
b1011 E"
b1011 7"
b11 6"
1$
#85000
0$
#90000
1F
b0 ]
b101 M
b11 L
b10 _
b10 A"
0^
1K
b1011 3"
b1000 :
b1000 G
b0 r
b0 t
b0 \
b1010 I
b1010 K"
b1011 H
b1011 L"
b101 O
b1011 @"
b1011 C
b101 A
b100000000100 D
b1010000100000001010 B
b100000 Q
b10111100000111000110011 )
b10111100000111000110011 .
b10111100000111000110011 W
b10111100000111000110011 R"
b10 ="
b1100 8
b1100 E"
b1100 7"
b1000 6"
b1101 3
b1101 D"
b1101 z
b101 #
b101 *
b101 /
b101 1
b101 M"
b101 2
b101 y
b0 /"
b11100 '"
b11100 J"
b0 6
b0 G"
b0 -"
b10100 &"
b10100 R
b0 ""
b101101010000001010001011 7
b101101010000001010001011 1"
b11000 2"
b100000 P
b11100 (
b11100 -
b11100 ;
b11100 Q"
b11100 9"
b111 ;"
1$
#95000
0$
#100000
b0 M
b0 L
b10 _
b10 A"
1K
b101 3"
b11 t
0F
b100 ]
b100100 Q
b101101010001001010001011 )
b101101010001001010001011 .
b101101010001001010001011 W
b101101010001001010001011 R"
b11100 I
b11100 K"
b101 H
b101 L"
b11100 O
b110011 @"
b101 C
b11100 A
b11100 D
b11100000100000000100 B
b1000 r
b11 \
b101 s
b11 |
b101 :
b101 G
b11 ="
b1000 ;"
b100100 P
b100000 (
b100000 -
b100000 ;
b100000 Q"
b100000 9"
b10111100000111000110011 7
b10111100000111000110011 1"
b11100 2"
b1011 0"
0~
b101 '"
b101 J"
b1011 6
b1011 G"
b1011 -"
b1010 5
b1010 F"
b1010 ,"
b11000 &"
b100011 R
b1011 ""
b11 )"
b101 0
b101 ("
b11100 3
b11100 D"
b11100 z
b0 #
b0 *
b0 /
b0 1
b0 M"
b0 2
b0 y
b1101 8
b1101 E"
b1101 7"
b101 6"
1$
#105000
0$
#110000
b100 t
b100 ]
b101 M
b11 L
b10 _
b10 A"
1K
b1011 3"
b0 :
b0 G
b0 r
b1 Y
b1 I"
b10 Z
b10 H"
b100 |
b0 \
b0 s
b1010 I
b1010 K"
b1011 H
b1011 L"
b101 O
b1011 @"
b1011 C
b101 A
b100000000100 D
b1010001100000001010 B
b101000 Q
b10111100000111000110011 )
b10111100000111000110011 .
b10111100000111000110011 W
b10111100000111000110011 R"
b100 ="
b11100 8
b11100 E"
b11100 7"
b0 6"
b101 3
b101 D"
b101 z
b11 !
b11 &
b11 +
b11 =
b11 O"
b11 {
b100 #
b100 *
b100 /
b100 1
b100 M"
b100 2
b100 y
b110011 0"
b11100 '"
b11100 J"
b101 6
b101 G"
b101 -"
b11100 5
b11100 F"
b11100 ,"
b11100 &"
b100001 R
b101 ""
b0 )"
b0 0
b0 ("
b101101010001001010001011 7
b101101010001001010001011 1"
b100000 2"
b101000 P
b100100 (
b100100 -
b100100 ;
b100100 Q"
b100100 9"
b1001 ;"
1$
#115000
0$
#120000
b0 M
b0 L
b10 _
b10 A"
1K
b101 3"
b11111111111111111111111111111101 ]
b101100 Q
b101101010010001010001011 )
b101101010010001010001011 .
b101101010010001010001011 W
b101101010010001010001011 R"
b11100 I
b11100 K"
b101 H
b101 L"
b11100 O
b110011 @"
b101 C
b11100 A
b11100 D
b11100000100000000100 B
b1001 r
b11 \
b11 t
b101 s
b11 |
b0 Y
b0 I"
b0 Z
b0 H"
b100 :
b100 G
b101 ="
b1010 ;"
b101100 P
b101000 (
b101000 -
b101000 ;
b101000 Q"
b101000 9"
b10111100000111000110011 7
b10111100000111000110011 1"
b100100 2"
b1011 0"
b1 ."
b101 '"
b101 J"
b1011 6
b1011 G"
b1011 -"
b1010 5
b1010 F"
b1010 ,"
b100000 &"
b101011 R
b1011 ""
b11 )"
b101 0
b101 ("
b11100 3
b11100 D"
b11100 z
b100 !
b100 &
b100 +
b100 =
b100 O"
b100 {
b101 8
b101 E"
b101 7"
b100 6"
1$
#125000
0$
#130000
b11111111111111111111111111111101 t
b1 ]
b101 M
b10 _
b10 A"
1K
b1011 3"
b11 L
bx '
bx ,
bx N
bx N"
b0 r
b1 Y
b1 I"
b10 Z
b10 H"
b11111111111111111111111111111101 |
b0 \
b100 s
b1010 I
b1010 K"
b1011 H
b1011 L"
b101 O
b1011 @"
b1011 C
b101 A
b100000000100 D
b1010010100000001010 B
b110000 Q
b10111100000111000110011 )
b10111100000111000110011 .
b10111100000111000110011 W
b10111100000111000110011 R"
b110 ="
b11100 8
b11100 E"
b11100 7"
b101 3
b101 D"
b101 z
b11 !
b11 &
b11 +
b11 =
b11 O"
b11 {
b11111111111111111111111111111101 #
b11111111111111111111111111111101 *
b11111111111111111111111111111101 /
b11111111111111111111111111111101 1
b11111111111111111111111111111101 M"
b11111111111111111111111111111101 2
b11111111111111111111111111111101 y
b110011 0"
b0 ."
b11100 '"
b11100 J"
b101 6
b101 G"
b101 -"
b11100 5
b11100 F"
b11100 ,"
b100100 &"
b101001 R
b101 ""
b0 )"
b0 0
b0 ("
b101101010010001010001011 7
b101101010010001010001011 1"
b101000 2"
b110000 P
b101100 (
b101100 -
b101100 ;
b101100 Q"
b101100 9"
b1011 ;"
1$
#135000
0$
#140000
b100 M
b100 L
b10 _
b10 A"
1K
b101 3"
b11111111111111111111111111111001 ]
b110100 Q
b110101010100001010001011 )
b110101010100001010001011 .
b110101010100001010001011 W
b110101010100001010001011 R"
b11100 I
b11100 K"
b101 H
b101 L"
b11100 O
b110011 @"
b101 C
b11100 A
b11100 D
b11100000100000000100 B
b1010 r
b11 \
b0 '
b0 ,
b0 N
b0 N"
b11 t
b101 s
b11 |
b0 Y
b0 I"
b0 Z
b0 H"
b11111111111111111111111111111101 :
b11111111111111111111111111111101 G
b111 ="
b1100 ;"
b110100 P
b110000 (
b110000 -
b110000 ;
b110000 Q"
b110000 9"
b10111100000111000110011 7
b10111100000111000110011 1"
b101100 2"
b1011 0"
b10 ."
b101 '"
b101 J"
b1011 6
b1011 G"
b1011 -"
b1010 5
b1010 F"
b1010 ,"
b101000 &"
b110011 R
b1011 ""
b11 )"
b101 0
b101 ("
b11100 3
b11100 D"
b11100 z
b11111111111111111111111111111101 !
b11111111111111111111111111111101 &
b11111111111111111111111111111101 +
b11111111111111111111111111111101 =
b11111111111111111111111111111101 O"
b11111111111111111111111111111101 {
b1 #
b1 *
b1 /
b1 1
b1 M"
b1 2
b1 y
b101 8
b101 E"
b101 7"
bx 8"
b11111111111111111111111111111101 6"
1$
#145000
0$
#150000
b11111111111111111111111111111001 t
b11111111111111111111111111111010 ]
b101 M
b10 _
b10 A"
1K
b1101 3"
b101 L
b1 :
b1 G
bx '
bx ,
bx N
bx N"
b0 r
b1 Y
b1 I"
b10 Z
b10 H"
b11111111111111111111111111111001 |
b100 \
b1 s
b1010 I
b1010 K"
b1101 H
b1101 L"
b101 O
b1011 @"
b1101 C
b101 A
b100000000100 D
b1010100100000001100 B
b111000 Q
b10111100000111000110011 )
b10111100000111000110011 .
b10111100000111000110011 W
b10111100000111000110011 R"
b1000 ="
b11100 8
b11100 E"
b11100 7"
b0 8"
b1 6"
b101 3
b101 D"
b101 z
b11 !
b11 &
b11 +
b11 =
b11 O"
b11 {
b11111111111111111111111111111001 #
b11111111111111111111111111111001 *
b11111111111111111111111111111001 /
b11111111111111111111111111111001 1
b11111111111111111111111111111001 M"
b11111111111111111111111111111001 2
b11111111111111111111111111111001 y
b110011 0"
b0 ."
b11100 '"
b11100 J"
b101 6
b101 G"
b101 -"
b11100 5
b11100 F"
b11100 ,"
b101100 &"
b110001 R
b101 ""
b100 )"
b100 0
b100 ("
b110101010100001010001011 7
b110101010100001010001011 1"
b110000 2"
b111000 P
b110100 (
b110100 -
b110100 ;
b110100 Q"
b110100 9"
b1101 ;"
1$
#155000
0$
#160000
b1 M
b11111111111111111111111111111101 L
b10 _
b10 A"
1K
b101 3"
b1010 ]
b111100 Q
b110101010101001010001011 )
b110101010101001010001011 .
b110101010101001010001011 W
b110101010101001010001011 R"
b11100 I
b11100 K"
b101 H
b101 L"
b11100 O
b110011 @"
b101 C
b11100 A
b11100 D
b11100000100000000100 B
b101 \
b101 t
b101 s
b101 |
b0 Y
b0 I"
b0 Z
b0 H"
b11111111111111111111111111111001 :
b11111111111111111111111111111001 G
b1001 ="
b1110 ;"
b111100 P
b111000 (
b111000 -
b111000 ;
b111000 Q"
b111000 9"
b10111100000111000110011 7
b10111100000111000110011 1"
b110100 2"
b1011 0"
b100 ."
b101 '"
b101 J"
b1101 6
b1101 G"
b1101 -"
b1010 5
b1010 F"
b1010 ,"
b110000 &"
b111101 R
b1101 ""
b101 )"
b101 0
b101 ("
b11100 3
b11100 D"
b11100 z
b11111111111111111111111111111001 !
b11111111111111111111111111111001 &
b11111111111111111111111111111001 +
b11111111111111111111111111111001 =
b11111111111111111111111111111001 O"
b11111111111111111111111111111001 {
b11111111111111111111111111111010 #
b11111111111111111111111111111010 *
b11111111111111111111111111111010 /
b11111111111111111111111111111010 1
b11111111111111111111111111111010 M"
b11111111111111111111111111111010 2
b11111111111111111111111111111010 y
b101 8
b101 E"
b101 7"
bx 8"
b11111111111111111111111111111001 6"
1$
#165000
0$
#170000
b1010 t
b100 ]
b101 M
b10 _
b10 A"
1K
b1101 3"
b101 L
b11111111111111111111111111111010 :
b11111111111111111111111111111010 G
b0 '
b0 ,
b0 N
b0 N"
b1 Y
b1 I"
b10 Z
b10 H"
b1010 |
b11111111111111111111111111111101 \
b11111111111111111111111111111010 s
b1010 I
b1010 K"
b1101 H
b1101 L"
b101 O
b1011 @"
b1101 C
b101 A
b100000000100 D
b1010101100000001100 B
b1000000 Q
b10111100000111000110011 )
b10111100000111000110011 .
b10111100000111000110011 W
b10111100000111000110011 R"
b1010 ="
b11100 8
b11100 E"
b11100 7"
b11111111111111111111111111111010 6"
b101 3
b101 D"
b101 z
b101 !
b101 &
b101 +
b101 =
b101 O"
b101 {
b1010 #
b1010 *
b1010 /
b1010 1
b1010 M"
b1010 2
b1010 y
b110011 0"
b0 ."
b11100 '"
b11100 J"
b101 6
b101 G"
b101 -"
b11100 5
b11100 F"
b11100 ,"
b110100 &"
b111001 R
b101 ""
b11111111111111111111111111111101 )"
b1 0
b1 ("
b110101010101001010001011 7
b110101010101001010001011 1"
b111000 2"
b1000000 P
b111100 (
b111100 -
b111100 ;
b111100 Q"
b111100 9"
b1111 ;"
1$
#175000
0$
#180000
b11111111111111111111111111111010 M
b11111111111111111111111111111001 L
b10 _
b10 A"
1K
b101 3"
b1010 ]
b1000100 Q
b110101010110001010001011 )
b110101010110001010001011 .
b110101010110001010001011 W
b110101010110001010001011 R"
b11100 I
b11100 K"
b101 H
b101 L"
b11100 O
b110011 @"
b101 C
b11100 A
b11100 D
b11100000100000000100 B
b101 \
b101 t
b101 s
b101 |
b0 Y
b0 I"
b0 Z
b0 H"
b1010 :
b1010 G
b1011 ="
b10000 ;"
b1000100 P
b1000000 (
b1000000 -
b1000000 ;
b1000000 Q"
b1000000 9"
b10111100000111000110011 7
b10111100000111000110011 1"
b111100 2"
b1011 0"
b101 ."
b101 '"
b101 J"
b1101 6
b1101 G"
b1101 -"
b1010 5
b1010 F"
b1010 ,"
b111000 &"
b1000101 R
b1101 ""
b101 )"
b101 0
b101 ("
b11100 3
b11100 D"
b11100 z
b1010 !
b1010 &
b1010 +
b1010 =
b1010 O"
b1010 {
b100 #
b100 *
b100 /
b100 1
b100 M"
b100 2
b100 y
b101 8
b101 E"
b101 7"
b0 8"
b1010 6"
1$
#185000
0$
#190000
b1010 t
b1110 ]
b101 M
b10 _
b10 A"
1K
b1101 3"
b101 L
b100 :
b100 G
b1 Y
b1 I"
b10 Z
b10 H"
b1010 |
b11111111111111111111111111111001 \
b100 s
b1010 I
b1010 K"
b1101 H
b1101 L"
b101 O
b1011 @"
b1101 C
b101 A
b100000000100 D
b1010110100000001100 B
b1001000 Q
b10111100000111000110011 )
b10111100000111000110011 .
b10111100000111000110011 W
b10111100000111000110011 R"
b1100 ="
b11100 8
b11100 E"
b11100 7"
b100 6"
b101 3
b101 D"
b101 z
b101 !
b101 &
b101 +
b101 =
b101 O"
b101 {
b1010 #
b1010 *
b1010 /
b1010 1
b1010 M"
b1010 2
b1010 y
b110011 0"
b0 ."
b11100 '"
b11100 J"
b101 6
b101 G"
b101 -"
b11100 5
b11100 F"
b11100 ,"
b111100 &"
b1000001 R
b101 ""
b11111111111111111111111111111001 )"
b11111111111111111111111111111010 0
b11111111111111111111111111111010 ("
b110101010110001010001011 7
b110101010110001010001011 1"
b1000000 2"
b1001000 P
b1000100 (
b1000100 -
b1000100 ;
b1000100 Q"
b1000100 9"
b10001 ;"
1$
#195000
0$
#200000
b100 M
b1010 L
b10 _
b10 A"
1K
b101 3"
b1010 ]
b1001100 Q
b110101010111001010001011 )
b110101010111001010001011 .
b110101010111001010001011 W
b110101010111001010001011 R"
b11100 I
b11100 K"
b101 H
b101 L"
b11100 O
b110011 @"
b101 C
b11100 A
b11100 D
b11100000100000000100 B
b101 \
b101 t
b101 s
b101 |
b0 Y
b0 I"
b0 Z
b0 H"
b1010 :
b1010 G
b1101 ="
b10010 ;"
b1001100 P
b1001000 (
b1001000 -
b1001000 ;
b1001000 Q"
b1001000 9"
b10111100000111000110011 7
b10111100000111000110011 1"
b1000100 2"
b1011 0"
b110 ."
b101 '"
b101 J"
b1101 6
b1101 G"
b1101 -"
b1010 5
b1010 F"
b1010 ,"
b1000000 &"
b1001101 R
b1101 ""
b101 )"
b101 0
b101 ("
b11100 3
b11100 D"
b11100 z
b1010 !
b1010 &
b1010 +
b1010 =
b1010 O"
b1010 {
b1110 #
b1110 *
b1110 /
b1110 1
b1110 M"
b1110 2
b1110 y
b101 8
b101 E"
b101 7"
b1010 6"
1$
#205000
0$
#210000
b1010 t
b11000 ]
b101 M
b101 L
b10 _
b10 A"
1K
b1101 3"
b1110 :
b1110 G
b1 Y
b1 I"
b10 Z
b10 H"
b1010 |
b1010 \
b1110 s
b1010 I
b1010 K"
b1101 H
b1101 L"
b101 O
b1011 @"
b1101 C
b101 A
b100000000100 D
b1010111100000001100 B
b1010000 Q
b10111100000111000110011 )
b10111100000111000110011 .
b10111100000111000110011 W
b10111100000111000110011 R"
b1110 ="
b11100 8
b11100 E"
b11100 7"
b1110 6"
b101 3
b101 D"
b101 z
b101 !
b101 &
b101 +
b101 =
b101 O"
b101 {
b1010 #
b1010 *
b1010 /
b1010 1
b1010 M"
b1010 2
b1010 y
b110011 0"
b0 ."
b11100 '"
b11100 J"
b101 6
b101 G"
b101 -"
b11100 5
b11100 F"
b11100 ,"
b1000100 &"
b1001001 R
b101 ""
b1010 )"
b100 0
b100 ("
b110101010111001010001011 7
b110101010111001010001011 1"
b1001000 2"
b1010000 P
b1001100 (
b1001100 -
b1001100 ;
b1001100 Q"
b1001100 9"
b10011 ;"
1$
#215000
0$
#220000
b1110 M
b1010 L
b10 _
b10 A"
1K
b101 3"
b101 t
b1010 ]
b1010100 Q
b101101011010001010001011 )
b101101011010001010001011 .
b101101011010001010001011 W
b101101011010001010001011 R"
b11100 I
b11100 K"
b101 H
b101 L"
b11100 O
b110011 @"
b101 C
b11100 A
b11100 D
b11100000100000000100 B
b101 \
b101 s
b101 |
b0 Y
b0 I"
b0 Z
b0 H"
b1010 :
b1010 G
b1111 ="
b10100 ;"
b1010100 P
b1010000 (
b1010000 -
b1010000 ;
b1010000 Q"
b1010000 9"
b10111100000111000110011 7
b10111100000111000110011 1"
b1001100 2"
b1011 0"
b111 ."
b101 '"
b101 J"
b1101 6
b1101 G"
b1101 -"
b1010 5
b1010 F"
b1010 ,"
b1001000 &"
b1010101 R
b1101 ""
b101 )"
b101 0
b101 ("
b11100 3
b11100 D"
b11100 z
b1010 !
b1010 &
b1010 +
b1010 =
b1010 O"
b1010 {
b11000 #
b11000 *
b11000 /
b11000 1
b11000 M"
b11000 2
b11000 y
b101 8
b101 E"
b101 7"
b1010 6"
1$
#225000
0$
